{
  "./data/iSal/audio/p225_143.MP3": "Russell did not appeal the committee's decision.",
  "./data/iSal/audio/p225_193.MP3": "It's very difficult to find a buyer.",
  "./data/iSal/audio/p225_175.MP3": "At that point, the structure of the board was changed.",
  "./data/iSal/audio/p225_011.MP3": "When a man looks for something beyond his reach, his friends say he is looking for the pot of gold at the end of the rainbow.",
  "./data/iSal/audio/p225_001.MP3": "Please call Stella.",
  "./data/iSal/audio/p225_089.MP3": "Officers recovered a second body in the area.",
  "./data/iSal/audio/p225_128.MP3": "Mr Hall is believed to have a broken leg.",
  "./data/iSal/audio/p225_053.MP3": "I have made that offer.",
  "./data/iSal/audio/p225_124.MP3": "As for the warning, it was not needed.",
  "./data/iSal/audio/p225_008.MP3": "These take the shape of a long round arch, with its path high above, and its two ends apparently beyond the horizon.",
  "./data/iSal/audio/p225_236.MP3": "That will be the criteria for the future.",
  "./data/iSal/audio/p225_149.MP3": "Shareholders will be asked to approve a new replacement scheme.",
  "./data/iSal/audio/p225_199.MP3": "And they were being paid ?",
  "./data/iSal/audio/p225_016.MP3": "The Norsemen considered the rainbow as a bridge over which the gods passed from earth to their home in the sky.",
  "./data/iSal/audio/p225_157.MP3": "He was asked to quit.",
  "./data/iSal/audio/p225_021.MP3": "The difference in the rainbow depends considerably upon the size of the drops, and the width of the colored band increases as the size of the drops increases.",
  "./data/iSal/audio/p225_033.MP3": "It's really no great surprise, because the price difference is so much.",
  "./data/iSal/audio/p225_195.MP3": "It is hard to tell.",
  "./data/iSal/audio/p225_094.MP3": "That's as it should be.",
  "./data/iSal/audio/p225_220.MP3": "He would discuss the peace process in Northern Ireland.",
  "./data/iSal/audio/p225_052.MP3": "Already, he has been a tremendous influence in the dressing room.",
  "./data/iSal/audio/p225_120.MP3": "The industry is not well organised.",
  "./data/iSal/audio/p225_172.MP3": "Nobody did in those days.",
  "./data/iSal/audio/p225_114.MP3": "I told him I was a long time ago.",
  "./data/iSal/audio/p225_174.MP3": "He was a big influence on our decision to make this show.",
  "./data/iSal/audio/p225_201.MP3": "The early goal was a shock to the system for Hearts.",
  "./data/iSal/audio/p225_037.MP3": "In fact, they are the future of investment.",
  "./data/iSal/audio/p225_009.MP3": "There is , according to legend, a boiling pot of gold at one end.",
  "./data/iSal/audio/p225_049.MP3": "I have learned from him.",
  "./data/iSal/audio/p225_103.MP3": "Everyone deserves to share in this success.",
  "./data/iSal/audio/p225_066.MP3": "It is a job creation scheme.",
  "./data/iSal/audio/p225_127.MP3": "It is a common problem.",
  "./data/iSal/audio/p225_064.MP3": "It could take some time.",
  "./data/iSal/audio/p225_115.MP3": "Overall, it was a promising day for the Scots.",
  "./data/iSal/audio/p225_210.MP3": "Scotland will play its part.",
  "./data/iSal/audio/p225_063.MP3": "Both sides have been hit by injury.",
  "./data/iSal/audio/p225_062.MP3": "I was very pleased with them today, though.",
  "./data/iSal/audio/p225_024.MP3": "This is a very common type of bow, one showing mainly red and yellow, with little or no green or blue.",
  "./data/iSal/audio/p225_121.MP3": "You get a lot for your money.",
  "./data/iSal/audio/p225_133.MP3": "I think he's the favourite.",
  "./data/iSal/audio/p225_221.MP3": "It's all change at Kilmarnock.",
  "./data/iSal/audio/p225_200.MP3": "It looked like a river.",
  "./data/iSal/audio/p225_086.MP3": "In fact, he should never have been in the field.",
  "./data/iSal/audio/p225_208.MP3": "You are a great player.",
  "./data/iSal/audio/p225_072.MP3": "What kind of man does that, Mr Dick ?",
  "./data/iSal/audio/p225_153.MP3": "We have a clean bill of health.",
  "./data/iSal/audio/p225_026.MP3": "How are you, sir ?",
  "./data/iSal/audio/p225_002.MP3": "Ask her to bring these things with her from the store.",
  "./data/iSal/audio/p225_141.MP3": "Drugs are used a lot at the fishing.",
  "./data/iSal/audio/p225_191.MP3": "People will ask about us.",
  "./data/iSal/audio/p225_212.MP3": "After that nothing could save him.",
  "./data/iSal/audio/p225_211.MP3": "He added that he was very sad about O Neill.",
  "./data/iSal/audio/p225_005.MP3": "She can scoop these things into three red bags, and we will go meet her Wednesday at the train station.",
  "./data/iSal/audio/p225_046.MP3": "No details of the talks were given.",
  "./data/iSal/audio/p225_142.MP3": "Well, you can have a tree.",
  "./data/iSal/audio/p225_058.MP3": "However, the problem is the timing.",
  "./data/iSal/audio/p225_020.MP3": "Many complicated ideas about the rainbow have been formed.",
  "./data/iSal/audio/p225_051.MP3": "We are committed to the ban.",
  "./data/iSal/audio/p225_108.MP3": "Mr Chisholm said the move was made on the advice of consultants.",
  "./data/iSal/audio/p225_123.MP3": "It is the latter which has prompted the warning.",
  "./data/iSal/audio/p225_007.MP3": "The rainbow is a division of white light into many beautiful colors.",
  "./data/iSal/audio/p225_040.MP3": "You'd better believe it.",
  "./data/iSal/audio/p225_057.MP3": "However, the City was in no doubt about the ultimate result.",
  "./data/iSal/audio/p225_036.MP3": "It was a close call.",
  "./data/iSal/audio/p225_061.MP3": "is not the only example of evil in our world.",
  "./data/iSal/audio/p225_151.MP3": "Nothing has been put into action.",
  "./data/iSal/audio/p225_171.MP3": "The report was criticised by the Scottish Consumer Council.",
  "./data/iSal/audio/p225_177.MP3": "The event was held in the council's headquarters in Hamilton.",
  "./data/iSal/audio/p225_012.MP3": "Throughout the centuries people have explained the rainbow in various ways.",
  "./data/iSal/audio/p225_023.MP3": "If the red of the second bow falls upon the green of the first, the result is to give a bow with an abnormally wide yellow band, since red and green light when mixed form yellow.",
  "./data/iSal/audio/p225_038.MP3": "Diving is no part of football.",
  "./data/iSal/audio/p225_071.MP3": "He is in the queue.",
  "./data/iSal/audio/p225_126.MP3": "The squad is too small.",
  "./data/iSal/audio/p225_018.MP3": "Aristotle thought that the rainbow was caused by reflection of the sun's rays by the rain.",
  "./data/iSal/audio/p225_150.MP3": "But he stressed that the partnership is not a construction company.",
  "./data/iSal/audio/p225_173.MP3": "But the story of the play is worth a play in itself.",
  "./data/iSal/audio/p225_013.MP3": "Some have accepted it as a miracle without physical explanation.",
  "./data/iSal/audio/p225_136.MP3": "But the Commission is on a collision course with the Government.",
  "./data/iSal/audio/p225_165.MP3": "The Internet is no substitute for customer service.",
  "./data/iSal/audio/p225_109.MP3": "That might help a bit.",
  "./data/iSal/audio/p225_182.MP3": "We are just glad to be alive.",
  "./data/iSal/audio/p225_218.MP3": "We used to live with dignity in our country.",
  "./data/iSal/audio/p225_219.MP3": "They did not attack the themes of the book.",
  "./data/iSal/audio/p225_090.MP3": "I did not have a bet on myself.",
  "./data/iSal/audio/p225_156.MP3": "I would like to see the figures for the second quarter.",
  "./data/iSal/audio/p225_056.MP3": "Clearly, it can go either way.",
  "./data/iSal/audio/p225_081.MP3": "I had no intention of misleading anyone.",
  "./data/iSal/audio/p225_082.MP3": "That view is held by many others within the industry.",
  "./data/iSal/audio/p225_159.MP3": "Neither side can win this war.",
  "./data/iSal/audio/p225_152.MP3": "The weather forecast isn't good.",
  "./data/iSal/audio/p225_235.MP3": "I always felt that I was in control of the match.",
  "./data/iSal/audio/p225_067.MP3": "Thankfully, Mr Campbell was able to help.",
  "./data/iSal/audio/p225_166.MP3": "Like last month, it is simply too early to make a call.",
  "./data/iSal/audio/p225_111.MP3": "It isn't a happy memory.",
  "./data/iSal/audio/p225_010.MP3": "People look, but no one ever finds it.",
  "./data/iSal/audio/p225_028.MP3": "Do I have a favourite ?",
  "./data/iSal/audio/p225_135.MP3": "We have seen a copy of the report.",
  "./data/iSal/audio/p225_122.MP3": "I didn't feel under any pressure.",
  "./data/iSal/audio/p225_035.MP3": "A hostile bid is prevented for another nine months.",
  "./data/iSal/audio/p225_025.MP3": "Why do you want to come to Edinburgh ?",
  "./data/iSal/audio/p225_196.MP3": "I think, therefore I am ?",
  "./data/iSal/audio/p225_044.MP3": "It was served by sheriff officers, not by the council.",
  "./data/iSal/audio/p225_029.MP3": "What do we do ?",
  "./data/iSal/audio/p225_225.MP3": "It is good for our team.",
  "./data/iSal/audio/p225_110.MP3": "Thereafter, he set his mind on becoming a doctor.",
  "./data/iSal/audio/p225_073.MP3": "So, did she meet him ?",
  "./data/iSal/audio/p225_060.MP3": "Strathclyde police have appealed for witnesses.",
  "./data/iSal/audio/p225_147.MP3": "Does the name matter ?",
  "./data/iSal/audio/p225_222.MP3": "In each case they were a goal down.",
  "./data/iSal/audio/p225_065.MP3": "There is no pressure on us.",
  "./data/iSal/audio/p225_116.MP3": "Yesterday the company reported a further downturn in.",
  "./data/iSal/audio/p225_017.MP3": "Others have tried to explain the phenomenon physically.",
  "./data/iSal/audio/p225_224.MP3": "He said that healthy eating was high on the council agenda.",
  "./data/iSal/audio/p225_019.MP3": "Since then physicists have found that it is not reflection, but refraction by the raindrops which causes the rainbows.",
  "./data/iSal/audio/p225_083.MP3": "Western countries condemned the conduct of the poll.",
  "./data/iSal/audio/p225_014.MP3": "To the Hebrews it was a token that there would be no more universal floods.",
  "./data/iSal/audio/p225_022.MP3": "The actual primary rainbow observed is said to be the effect of super-imposition of a number of bows.",
  "./data/iSal/audio/p225_197.MP3": "Who was she ?",
  "./data/iSal/audio/p225_070.MP3": "That is bound to happen.",
  "./data/iSal/audio/p225_039.MP3": "However, the decision has been welcomed by Scottish Enterprise officials.",
  "./data/iSal/audio/p225_144.MP3": "She will do for me.",
  "./data/iSal/audio/p225_223.MP3": "The police have an awful lot to explain.",
  "./data/iSal/audio/p225_145.MP3": "Why change it ?",
  "./data/iSal/audio/p225_084.MP3": "He is delighted, and he has every right to be.",
  "./data/iSal/audio/p225_169.MP3": "Irvine said his company was intent on supporting the Scottish dairy industry.",
  "./data/iSal/audio/p225_027.MP3": "So is that it, then ?",
  "./data/iSal/audio/p225_030.MP3": "People come into the Borders for the beauty of the background.",
  "./data/iSal/audio/p225_003.MP3": "Six spoons of fresh snow peas, five thick slabs of blue cheese, and maybe a snack for her brother Bob.",
  "./data/iSal/audio/p225_203.MP3": "They have the cash and the fire power.",
  "./data/iSal/audio/p225_104.MP3": "His is a success story by any standard.",
  "./data/iSal/audio/p225_113.MP3": "The big issue for us is the review.",
  "./data/iSal/audio/p225_131.MP3": "Another High Street retailer was not so lucky.",
  "./data/iSal/audio/p225_176.MP3": "Treatment is not an issue with these people.",
  "./data/iSal/audio/p225_118.MP3": "We suffered a lot for seven years.",
  "./data/iSal/audio/p225_117.MP3": "We have no influence on the Government's policy on the euro.",
  "./data/iSal/audio/p225_045.MP3": "People were determined to change the Government in the last election.",
  "./data/iSal/audio/p225_006.MP3": "When the sunlight strikes raindrops in the air, they act as a prism and form a rainbow.",
  "./data/iSal/audio/p225_054.MP3": "Four other charges were dropped.",
  "./data/iSal/audio/p225_192.MP3": "However, this idea is never developed.",
  "./data/iSal/audio/p225_179.MP3": "They know no other way.",
  "./data/iSal/audio/p225_059.MP3": "But retail banking would be run from Halifax.",
  "./data/iSal/audio/p225_158.MP3": "Inside, the atmosphere was quiet.",
  "./data/iSal/audio/p225_004.MP3": "We also need a small plastic snake and a big toy frog for the kids.",
  "./data/iSal/audio/p225_202.MP3": "The occasion was the New Labour conference in Brighton last year.",
  "./data/iSal/audio/p225_092.MP3": "There is a contract in existence for Allan."
}
